<?xml version="1.0"?><svg width="640" height="480" xmlns="http://www.w3.org/2000/svg" xmlns:xlink="http://www.w3.org/1999/xlink">
 <title>Bare Tree</title>
 <metadata id="metadata3">Cartoon TreeThis is a simple tree designed for use in the elements and principles tutoral in Inkscape.plantflowerparkJon PhillipsJon PhillipsJon Phillipsimage/svg+xmlen</metadata>
 <defs>
  <linearGradient id="svg_1" x1="0" y1="0" x2="1" y2="1">
   <stop offset="0" stop-color="#613c25"/>
   <stop offset="1" stop-color="#7f561b"/>
  </linearGradient>
 </defs>
 <g>
  <path d="m347.291565,23.531628l-22.033569,-15.111775c1.17865,11.707866 3.127899,119.936135 -8.00412,149.063928c-11.132019,29.127808 -40.96463,-37.827263 -41.536407,-25.5168l-17.769867,-8.474922c-25.010483,5.164055 65.95047,81.550819 58.319366,107.092339l-11.3526,24.607452c-17.942657,-6.017441 -37.630188,-12.097122 -47.05249,-15.260071c-47.086212,-15.656357 -73.477646,-15.291229 -123.266815,-24.284821l-31.939171,3.791321c39.390495,6.862289 76.906898,17.726776 113.999046,29.966827c-16.570145,0.82222 -33.039154,2.245911 -49.69783,5.4655c-3.894226,0.912796 -7.76741,1.818542 -11.660217,2.731323l7.357178,9.200226c3.534592,-0.819397 6.99472,-1.640228 10.529312,-2.459625c24.650848,-4.750824 49.756836,-5.488129 74.942917,-5.100372c19.695969,5.905609 35.024216,15.656311 45.960953,23.681946c8.788727,14.55249 6.597168,39.411835 3.555664,59.476501c-1.362701,18.703308 -1.333191,9.19458 -1.291046,16.668243c-4.843903,89.402344 -5.770874,76.304993 -21.141266,119.866241l56.848267,-0.144684c-7.112793,-32.589203 -12.025482,-33.122742 -4.575623,-103.326447c0.01123,-0.089203 -0.01123,-0.184021 0,-0.273193c17.436951,-21.372314 38.95639,-45.756195 49.811646,-56.106964c23.345734,-20.216064 58.860229,-42.153107 88.413971,-56.28952l-23.886597,-4.667328c-14.599152,7.077454 -24.063599,7.84729 -41.32074,13.502411c6.165894,-11.778687 12.942841,-24.897568 14.943359,-29.601685l-12.904938,1.730774c-4.079651,8.77565 -15.301575,28.050659 -24.112762,44.083466c-7.548248,5.66217 -15.356384,11.028625 -22.528076,17.123871c-10.211853,9.416748 -16.928436,19.143433 -25.770569,27.527039c6.614044,-35.06723 4.661346,-82.484863 37.316986,-112.921524c17.229034,-9.7677 30.917847,-16.835205 43.245361,-22.538452c13.052429,-5.817871 34.644928,-16.808319 48.277496,-21.692184l-18.504608,-2.628006c-14.2901,5.064987 -28.164368,10.493683 -41.886871,16.487061c-5.131927,2.316696 -12.078888,5.857513 -18.565002,9.108215c14.670776,-24.515488 32.869141,-47.738892 52.979523,-69.588135c26.720184,-0.556183 52.979553,0.513718 79.132111,5.829193l-3.267609,-6.550949c-25.311127,-5.179779 -40.300842,-9.09095 -65.675171,-9.9347c16.956482,-17.19381 35.161896,-33.553787 53.320953,-49.913483l-35.459747,3.950668c-20.624542,18.603638 -33.13327,25.740059 -52.024292,45.514206c-10.904358,11.703682 -16.748535,18.128685 -26.350677,30.49894c-0.743134,0.260406 -3.875946,8.734604 -23.233307,32.256622c-7.383911,11.294708 -4.359222,8.716202 -15.822815,19.226883c0.781128,-35.658752 0.922974,-36.139923 2.39389,-58.497238c-0.283813,-29.552727 0.001373,-44.423363 0.19104,-75.233925c0.754395,-23.02132 0.713654,-23.300682 1.095764,-42.334393z" id="path1745" stroke-width="1pt" fill-rule="nonzero" fill="url(#svg_1)"/>
  <use height="1052.3622" id="use2461" transform="matrix(1.42929, 0, 0, 1.42929, -299.231, -450.228)" width="744.09448" x="-58.070772" xlink:href="#path2432" y="-15.392272"/>
  <use height="1052.3622" id="use2462" transform="matrix(1.42929, 0, 0, 1.42929, -372.264, -316.335)" width="744.09448" x="-58.070769" xlink:href="#path2432" y="-15.392244"/>
  <use height="1052.3622" id="use2464" transform="matrix(1.42929, 0, 0, 1.42929, -351.977, -336.622)" width="744.09448" x="-58.070761" xlink:href="#path2463" y="-15.392244"/>
  <use height="1052.3622" id="use2465" transform="matrix(1.42929, 0, 0, 1.42929, -372.264, -231.13)" width="744.09448" x="-58.070769" xlink:href="#path2463" y="-15.392269"/>
  <use height="1052.3622" id="use2467" transform="matrix(1.42929, 0, 0, 1.42929, -408.78, -257.851)" width="744.09448" x="-58.070692" xlink:href="#path2466" y="-15.392266"/>
  <use height="1052.3622" id="use2468" transform="matrix(1.42929, 0, 0, 1.42929, -335.748, -332.564)" width="744.09448" x="-58.070772" xlink:href="#path2466" y="-15.392226"/>
  <use height="1052.3622" id="use2470" transform="matrix(1.42929, 0, 0, 1.42929, -437.182, -263.589)" width="744.09448" x="-58.070708" xlink:href="#path2463" y="-15.392212"/>
  <use height="1052.3622" id="use2471" transform="matrix(1.42929, 0, 0, 1.42929, -372.264, -344.736)" width="744.09448" x="-58.070769" xlink:href="#path2432" y="-15.392251"/>
  <use height="1052.3622" id="use2472" transform="matrix(1.42929, 0, 0, 1.42929, -388.494, -312.277)" width="744.09448" x="-58.070688" xlink:href="#path2466" y="-15.392225"/>
  <use height="1052.3622" id="use2473" transform="matrix(1.42929, 0, 0, 1.42929, -437.182, -312.277)" width="744.09448" x="-58.070708" xlink:href="#path2463" y="-15.392225"/>
  <use height="1052.3622" id="use2474" transform="matrix(1.42929, 0, 0, 1.42929, -327.633, -360.966)" width="744.09448" x="-58.070803" xlink:href="#path2432" y="-15.392248"/>
  <use height="1052.3622" id="use2475" transform="matrix(1.42929, 0, 0, 1.42929, -388.494, -401.54)" width="744.09448" x="-58.070688" xlink:href="#path2466" y="-15.39225"/>
  <use height="1052.3622" id="use2476" transform="matrix(1.42929, 0, 0, 1.42929, -380.379, -263.589)" width="744.09448" x="-58.070776" xlink:href="#path2463" y="-15.392248"/>
  <use height="1052.3622" id="use2477" transform="matrix(1.42929, 0, 0, 1.42929, -360.092, -397.482)" width="744.09448" x="-58.07073" xlink:href="#path2432" y="-15.3922"/>
  <use height="1052.3622" id="use2478" transform="matrix(1.42929, 0, 0, 1.42929, -390.87, -356.909)" width="744.09448" x="-58.070761" xlink:href="#path2432" y="-15.392245"/>
  <use height="1052.3622" id="use2481" transform="matrix(1.42929, 0, 0, 1.42929, -347.92, -352.851)" width="744.09448" x="-58.070765" xlink:href="#path2479" y="-15.392227"/>
  <use height="1052.3622" id="use2482" transform="matrix(1.42929, 0, 0, 1.42929, -372.264, -377.195)" width="744.09448" x="-58.070769" xlink:href="#path2463" y="-15.3922"/>
  <use height="1052.3622" id="use2483" transform="matrix(1.42929, 0, 0, 1.42929, -396.608, -340.679)" width="744.09448" x="-58.070727" xlink:href="#path2466" y="-15.392211"/>
  <use height="1052.3622" id="use2484" transform="matrix(1.42929, 0, 0, 1.42929, -376.321, -442.113)" width="744.09448" x="-58.070727" xlink:href="#path2432" y="-15.392251"/>
  <use height="1052.3622" id="use2485" transform="matrix(1.42929, 0, 0, 1.42929, -364.149, -348.794)" width="744.09448" x="-58.070761" xlink:href="#path2466" y="-15.392223"/>
  <use height="1052.3622" id="use2486" transform="matrix(1.42929, 0, 0, 1.42929, -388.494, -385.31)" width="744.09448" x="-58.070688" xlink:href="#path2479" y="-15.392206"/>
  <title>Layer 1</title>
 </g>
</svg>